0025 0000                      		DESHAFF0:
0026 0000 46                   			mov	b,m	; B is a Key byte (#FF in normal case)
0027 0001 23                   			inx	h
0028 0002 7E                   		DSH0L:  mov	a,m	; +7=7  ; main loop
0029 0003 23                   			inx	h	; +5=12
0030 0004 B8                   			cmp	b	; +4=16 ; compare with a Key
0031 0005 CA 0D 00             			jz	DSH0FF	; +10=26
0032 0008 12                   		DSH0LL:	stax	d	; +7=33 ; it was not a Key so decode byte as is
0033 0009 13                   			inx	d	; +5=38
0034 000A C3 02 00             			jmp	DSH0L	; +10=48 ; 1 byte of unpackable data takes 48 clock cycles
0035 000D 7E                   		DSH0FF:	mov	a,m	; read byte after Key
0036 000E 23                   			inx	h
0037 000F B7                   			ora	a	; check for 0
0038 0010 C2 17 00             			jnz	DSH0F1
0039 0013 78                   			mov	a,b	; it was 0 after a Key so decode it as Key value
0040 0014 C3 08 00             			jmp	DSH0LL	; go back to the loop
0041 0017 4F                   		DSH0F1:	mov	c,a	; it was not 0 after a Key so store it and
0042 0018 E6 C0                			ani	0C0H	; check if it's 1-byte distance
0043 001A FE C0                			cpi	0C0H	; by comparing 2 most significant bits with 11
0044 001C CA 30 00             			jz	DSH0F2	; go to handle 2-byte case
0046 001F 79                   			mov	a,c	; now check if distance is 191 (special case)
0047 0020 FE BF                			cpi	0BFH
0048 0022 CA 4A 00             			jz	DSH0F3	; go to special case handler
0049 0025 C5                   			push	b	; temporarily push Key to stack
0050 0026 AF                   			xra	a	; clear A and flagC
0053 0027 2F                   			cma
0054 0028 47                   			mov	b,a
0055 0029 79                   			mov	a,c	; invert C
0056 002A 2F                   			cma
0057 002B 4F                   			mov	c,a
0058 002C 03                   			inx	b	; make it two's complement negative number
0059 002D C3 53 00             			jmp	DSH0LN	; go to read length
0061 0030 C5                   		DSH0F2:	push	b	; temporary push Key to stack
0062 0031 41                   			mov	b,c	; it should be 2-byte distance, so this is higher byte
0063 0032 4E                   			mov	c,m	; read lower byte of the distance
0064 0033 23                   			inx	h
0066 0034 79                   			mov	a,c
0067 0035 32 87 00             			sta	DSH0D
0068 0038 78                   			mov	a,b
0069 0039 32 88 00             			sta	DSH0DH
0071 003C 78                   			mov	a,b
0072 003D FE C0                			cpi	0C0H	; compare higher byte with #C0
0073 003F C2 53 00             			jnz	DSH0LN	; go to read length
0074 0042 79                   			mov	a,c
0075 0043 F6 00                			ori	0	; compare lower byte with #00
0076 0045 C2 53 00             			jnz	DSH0LN	; go to read length  
0077 0048 C1                   			pop	b	; balance the stack before return
0078 0049 C9                   			ret
0079 004A C5                   		DSH0F3:	push	b	; temporary push Key to stack
0081 004B 3A 87 00             			lda	DSH0D	
0082 004E 4F                   			mov	c,a
0083 004F 3A 88 00             			lda	DSH0DH
0084 0052 47                   			mov	b,a	
0086 0053 7E                   		DSH0LN:	mov	a,m	; read length code from stream
0087 0054 87                   			add	a	; check if bit 7 of length code was 1
0088 0055 D2 63 00             			jnc	DSH0L1	; if not go to next step
0090 0058 7E                   			mov	a,m	; read length code from stream again
0091 0059 D6 7C                			sui	7CH	; convert code to actual length
0092 005B 23                   		DSH0L0:	inx	h
0093 005C D5                   			push	d	; temporarily push DE to stack
0094 005D 16 00                			mvi	d,0	; higher byte of the length is 0
0095 005F 5F                   			mov	e,a	; lower byte of the length is taken from A
0096 0060 C3 72 00             			jmp	DSH0L3
0097 0063 87                   		DSH0L1:	add	a	; check if bit 6 of length code was 1
0098 0064 D2 6D 00             			jnc	DSH0L2	; if not go to next step
0100 0067 7E                   			mov	a,m	; read length code from stream again
0101 0068 C6 44                			adi	44H	; convert code to actual length
0102 006A C3 5B 00             			jmp	DSH0L0
0103 006D D5                   		DSH0L2:	push	d	; temporarily push DE to stack
0105 006E 56                   			mov	d,m	; read higher byte of the length from stream again
0106 006F 23                   			inx	h
0107 0070 5E                   			mov	e,m	; read lower byte of the length from stream
0108 0071 23                   			inx	h
0109 0072 E3                   		DSH0L3:	xthl		; exchange top of the stack (stored DE) with HL
0110 0073 D5                   			push	d	; push length of the data to stack
0111 0074 54                   			mov	d,h
0112 0075 5D                   			mov	e,l	; now DE is current destination address
0113 0076 09                   			dad	b	; now HL is address of the reference
0114 0077 C1                   			pop	b	; now BC is length of the data to copy
0116 0078 7E                   		DSH0L4:	mov	a,m
0117 0079 12                   			stax	d
0118 007A 23                   			inx	h
0119 007B 13                   			inx	d
0120 007C 0B                   			dcx	b
0121 007D 79                   			mov	a,c
0122 007E B0                   			ora	b
0123 007F C2 78 00             			jnz	DSH0L4
0124 0082 E1                   			pop	h	; restore old source
0125 0083 C1                   			pop	b	; restore a Key
0126 0084 C3 02 00             			jmp	DSH0L	; go back to main loop
0127 0087 00                   		DSH0D:	db	0	; lower byte of last used long distance
0128 0088 00                   		DSH0DH:	db	0	; higher byte of last used long distance
0003 0089 